{
    "catalog" : {
        "id":"Administrative Areas",
        "description":"Administrative Areas",
        "title":"Administrative Areas"
    },
    "collections":[
        {
            "id":"UK Territorial Sea Limit",
            "description":"UK Territorial Sea Limit",
            "title":"UK Territorial Sea Limit",
            "license":"Placeholder",
            "items": [
                {
                    "id": "UK Territorial Sea Limit",
                    "times": {
                        "start_time":"2020-01-01T00:00:00Z",
                        "end_time" :"2020-12-31T00:00:00Z"
                    },
                    "coords":{
                        "min_long": -90,
                        "max_long": 90,
                        "min_lat": -180,
                        "max_lat": 180
                    },                    
                    "data_type": "WMS",
                    "description": "This layer represents...",
                    "links": [
                        {
                            "rel": "wms",
                            "href": "https://mpa-ows.jncc.gov.uk/mpa_mapper/wms",
                            "type": "text/xml",
                            "title": "UK Territorial Sea Limit",
                            "wms:layers": "ukts"
                        }
                    ]
                }
            ]
        },
        {
            "id":"UK Continental Shelf and ZEE",
            "description":"UK Continental Shelf and ZEE",
            "title":"UK Continental Shelf and ZEE",
            "license":"Placeholder",
            "items": [
                {
                    "id": "UK Continental Shelf and ZEE",
                    "times": {
                        "start_time":"2020-01-01T00:00:00Z",
                        "end_time" :"2020-12-31T00:00:00Z"
                    },
                    "data_type": "WMS",
                    "description": "This layer represents...",
                    "coords":{
                        "min_long": -90,
                        "max_long": 90,
                        "min_lat": -180,
                        "max_lat": 180
                    },                    
                    "links": [
                        {
                            "rel": "wms",
                            "href": "https://mpa-ows.jncc.gov.uk/mpa_mapper/wms",
                            "type": "text/xml",
                            "title": "UK Continental Shelf and ZEE",
                            "wms:layers": "ukcs"
                        }
                    ]
                }
            ]
        },
        {
            "id":"UK Waters",
            "description":"UK Waters",
            "title":"UK Waters",
            "license":"Placeholder",
            "items": [
                {
                    "id": "UK Waters",
                    "times": {
                        "start_time":"2020-01-01T00:00:00Z",
                        "end_time" :"2020-12-31T00:00:00Z"
                    },
                    "data_type": "WMS",
                    "description": "This layer represents...",
                    "coords":{
                        "min_long": -90,
                        "max_long": 90,
                        "min_lat": -180,
                        "max_lat": 180
                    },                    
                    "links": [
                        {
                            "rel": "wms",
                            "href": "https://mpa-ows.jncc.gov.uk/mpa_mapper/wms",
                            "type": "text/xml",
                            "title": "UK Waters",
                            "wms:layers": "uk_countrywaters"
                        }
                    ]
                }
            ]
        },
        {
            "id":"Biogeogaphic Regions",
            "description":"Biogeogaphic Regions",
            "title":"Biogeogaphic Regions",
            "license":"Placeholder",
            "items": [
                {
                    "id": "Biogeogaphic Regions",
                    "times": {
                        "start_time":"2020-01-01T00:00:00Z",
                        "end_time" :"2020-12-31T00:00:00Z"
                    },
                    "data_type": "WMS",
                    "description": "This layer represents...",
                    "coords":{
                        "min_long": -90,
                        "max_long": 90,
                        "min_lat": -180,
                        "max_lat": 180
                    },                    
                    "links": [
                        {
                            "rel": "wms",
                            "href": "https://mpa-ows.jncc.gov.uk/mpa_mapper/wms",
                            "type": "text/xml",
                            "title": "Biogeogaphic Regions",
                            "wms:layers": "cp2regions"
                        }
                    ]
                }
            ]
        }
    ]
}
