{
    "catalog" : {
        "id":"Sidescan",
        "description":"Sidescan data",
        "title":"Sidescan"
    },
    "collections":[
        {
            "id":"Sidescan",
            "description":"Sidescan data",
            "title":"Sidescan",
            "license":"protected",
            "global_path": "https://lrl8vbuxj1ma.compat.objectstorage.uk-london-1.oraclecloud.com",
            "items": [{
                "id": "Sidescan 2012",
                "path": "/haig-fras-private/layers/sidescan/sidescan_2012/sidescan_2012.tif",
                "signed_url": "gAAAAABlHTiQ0dQ_hwClMsABjoFQG_XGNXCXt0u1gnYJ_R_p1KrmyzhGNBW6kpf90BGrKaiiBe93OEhhfYH4_VCBm4UE_SgfhnSMkdK9GpKRICobuEoYcPaOVJ_dHPzCA3hmsgrJqE6cgFiVWI8L3_6tXQPsAN_5DABDTntxm1dBFxclfVn8UGttbAEpoFcCYBchAUN09w4efq2bx_dLy03qdC6nm88VpBiJaxihbM2FTgYRr1gt65UmCGK2KPoPQsG4y-F_lxVgbRxqEaBIKBKj79EzySjmCZgLF0KTQ0eSyLnQzpZysTtjrxFO5zfS5orK3CZG3hfihCBPZt3Oh-dxcLjyCWGgDih2k41XiV9qrj0fK7iMkFo=",
                "times": {
                    "start_time":"2020-01-01T00:00:00Z",
                    "end_time" :"2020-12-31T00:00:00Z"
                },
                "coords":{
                    "min_long": -7.721740843317691,
                    "max_long": -7.707613218639933,
                    "min_lat": 50.352661160034216,
                    "max_lat": 50.39904357204282
                },
                "data_type": "COG",
                "description": "This layer represents..."
            }]
        }
    ]
}
